simulation/qsim/skeleton.msim.vcd
$comment
	File created using the following command:
		vcd file skeleton.msim.vcd -direction
$end
$date
	Sat Apr 20 23:50:38 2019
$end
$version
	ModelSim Version 10.5b
$end
$timescale
	1ps
$end

$scope module linear_rng_vlg_vec_tst $end
$var reg 1 ! clock $end
$var reg 32 " initialSeed [31:0] $end
$var wire 1 # random [31] $end
$var wire 1 $ random [30] $end
$var wire 1 % random [29] $end
$var wire 1 & random [28] $end
$var wire 1 ' random [27] $end
$var wire 1 ( random [26] $end
$var wire 1 ) random [25] $end
$var wire 1 * random [24] $end
$var wire 1 + random [23] $end
$var wire 1 , random [22] $end
$var wire 1 - random [21] $end
$var wire 1 . random [20] $end
$var wire 1 / random [19] $end
$var wire 1 0 random [18] $end
$var wire 1 1 random [17] $end
$var wire 1 2 random [16] $end
$var wire 1 3 random [15] $end
$var wire 1 4 random [14] $end
$var wire 1 5 random [13] $end
$var wire 1 6 random [12] $end
$var wire 1 7 random [11] $end
$var wire 1 8 random [10] $end
$var wire 1 9 random [9] $end
$var wire 1 : random [8] $end
$var wire 1 ; random [7] $end
$var wire 1 < random [6] $end
$var wire 1 = random [5] $end
$var wire 1 > random [4] $end
$var wire 1 ? random [3] $end
$var wire 1 @ random [2] $end
$var wire 1 A random [1] $end
$var wire 1 B random [0] $end

$scope module i1 $end
$var wire 1 C gnd $end
$var wire 1 D vcc $end
$var wire 1 E unknown $end
$var tri1 1 F devclrn $end
$var tri1 1 G devpor $end
$var tri1 1 H devoe $end
$var wire 1 I initialSeed[0]~input_o $end
$var wire 1 J initialSeed[1]~input_o $end
$var wire 1 K initialSeed[2]~input_o $end
$var wire 1 L initialSeed[3]~input_o $end
$var wire 1 M initialSeed[4]~input_o $end
$var wire 1 N initialSeed[5]~input_o $end
$var wire 1 O initialSeed[6]~input_o $end
$var wire 1 P initialSeed[7]~input_o $end
$var wire 1 Q initialSeed[8]~input_o $end
$var wire 1 R initialSeed[9]~input_o $end
$var wire 1 S initialSeed[10]~input_o $end
$var wire 1 T initialSeed[11]~input_o $end
$var wire 1 U initialSeed[12]~input_o $end
$var wire 1 V initialSeed[13]~input_o $end
$var wire 1 W initialSeed[14]~input_o $end
$var wire 1 X initialSeed[15]~input_o $end
$var wire 1 Y initialSeed[16]~input_o $end
$var wire 1 Z initialSeed[17]~input_o $end
$var wire 1 [ initialSeed[18]~input_o $end
$var wire 1 \ initialSeed[19]~input_o $end
$var wire 1 ] initialSeed[20]~input_o $end
$var wire 1 ^ initialSeed[21]~input_o $end
$var wire 1 _ initialSeed[22]~input_o $end
$var wire 1 ` initialSeed[23]~input_o $end
$var wire 1 a initialSeed[24]~input_o $end
$var wire 1 b initialSeed[25]~input_o $end
$var wire 1 c initialSeed[26]~input_o $end
$var wire 1 d initialSeed[27]~input_o $end
$var wire 1 e initialSeed[28]~input_o $end
$var wire 1 f initialSeed[29]~input_o $end
$var wire 1 g initialSeed[30]~input_o $end
$var wire 1 h initialSeed[31]~input_o $end
$var wire 1 i random[0]~output_o $end
$var wire 1 j random[1]~output_o $end
$var wire 1 k random[2]~output_o $end
$var wire 1 l random[3]~output_o $end
$var wire 1 m random[4]~output_o $end
$var wire 1 n random[5]~output_o $end
$var wire 1 o random[6]~output_o $end
$var wire 1 p random[7]~output_o $end
$var wire 1 q random[8]~output_o $end
$var wire 1 r random[9]~output_o $end
$var wire 1 s random[10]~output_o $end
$var wire 1 t random[11]~output_o $end
$var wire 1 u random[12]~output_o $end
$var wire 1 v random[13]~output_o $end
$var wire 1 w random[14]~output_o $end
$var wire 1 x random[15]~output_o $end
$var wire 1 y random[16]~output_o $end
$var wire 1 z random[17]~output_o $end
$var wire 1 { random[18]~output_o $end
$var wire 1 | random[19]~output_o $end
$var wire 1 } random[20]~output_o $end
$var wire 1 ~ random[21]~output_o $end
$var wire 1 !! random[22]~output_o $end
$var wire 1 "! random[23]~output_o $end
$var wire 1 #! random[24]~output_o $end
$var wire 1 $! random[25]~output_o $end
$var wire 1 %! random[26]~output_o $end
$var wire 1 &! random[27]~output_o $end
$var wire 1 '! random[28]~output_o $end
$var wire 1 (! random[29]~output_o $end
$var wire 1 )! random[30]~output_o $end
$var wire 1 *! random[31]~output_o $end
$var wire 1 +! clock~input_o $end
$var wire 1 ,! clock~inputclkctrl_outclk $end
$var wire 1 -! random[0]~0_combout $end
$var wire 1 .! random[0]~reg0_q $end
$var wire 1 /! Add0~1_cout $end
$var wire 1 0! Add0~2_combout $end
$var wire 1 1! random[1]~1_combout $end
$var wire 1 2! random[1]~reg0_q $end
$var wire 1 3! Add0~3 $end
$var wire 1 4! Add0~4_combout $end
$var wire 1 5! random[2]~reg0_q $end
$var wire 1 6! Mult0|mult_core|romout[0][3]~0_combout $end
$var wire 1 7! Add0~5 $end
$var wire 1 8! Add0~6_combout $end
$var wire 1 9! random[3]~2_combout $end
$var wire 1 :! random[3]~reg0_q $end
$var wire 1 ;! Mult0|mult_core|romout[0][4]~1_combout $end
$var wire 1 <! Mult0|mult_core|padder|adder[0]|auto_generated|op_1~0_combout $end
$var wire 1 =! Add0~7 $end
$var wire 1 >! Add0~8_combout $end
$var wire 1 ?! random[4]~reg0_q $end
$var wire 1 @! Mult0|mult_core|romout[0][5]~combout $end
$var wire 1 A! Mult0|mult_core|padder|adder[0]|auto_generated|op_1~1 $end
$var wire 1 B! Mult0|mult_core|padder|adder[0]|auto_generated|op_1~2_combout $end
$var wire 1 C! Add0~9 $end
$var wire 1 D! Add0~10_combout $end
$var wire 1 E! random[5]~reg0_q $end
$var wire 1 F! Mult0|mult_core|romout[0][6]~combout $end
$var wire 1 G! Mult0|mult_core|padder|adder[0]|auto_generated|op_1~3 $end
$var wire 1 H! Mult0|mult_core|padder|adder[0]|auto_generated|op_1~4_combout $end
$var wire 1 I! Add0~11 $end
$var wire 1 J! Add0~12_combout $end
$var wire 1 K! random[6]~3_combout $end
$var wire 1 L! random[6]~reg0_q $end
$var wire 1 M! Mult0|mult_core|romout[1][3]~2_combout $end
$var wire 1 N! Mult0|mult_core|romout[0][7]~3_combout $end
$var wire 1 O! Mult0|mult_core|padder|adder[0]|auto_generated|op_1~5 $end
$var wire 1 P! Mult0|mult_core|padder|adder[0]|auto_generated|op_1~6_combout $end
$var wire 1 Q! Add0~13 $end
$var wire 1 R! Add0~14_combout $end
$var wire 1 S! random[7]~reg0_q $end
$var wire 1 T! Mult0|mult_core|romout[0][8]~combout $end
$var wire 1 U! Mult0|mult_core|romout[1][4]~4_combout $end
$var wire 1 V! Mult0|mult_core|padder|adder[0]|auto_generated|op_1~7 $end
$var wire 1 W! Mult0|mult_core|padder|adder[0]|auto_generated|op_1~8_combout $end
$var wire 1 X! Mult0|mult_core|padder|sub_par_add|adder[0]|auto_generated|op_1~0_combout $end
$var wire 1 Y! Add0~15 $end
$var wire 1 Z! Add0~16_combout $end
$var wire 1 [! random[8]~reg0_q $end
$var wire 1 \! Mult0|mult_core|romout[0][9]~6_combout $end
$var wire 1 ]! Mult0|mult_core|romout[1][5]~5_combout $end
$var wire 1 ^! Mult0|mult_core|padder|adder[0]|auto_generated|op_1~9 $end
$var wire 1 _! Mult0|mult_core|padder|adder[0]|auto_generated|op_1~10_combout $end
$var wire 1 `! Mult0|mult_core|padder|sub_par_add|adder[0]|auto_generated|op_1~1 $end
$var wire 1 a! Mult0|mult_core|padder|sub_par_add|adder[0]|auto_generated|op_1~2_combout $end
$var wire 1 b! Add0~17 $end
$var wire 1 c! Add0~18_combout $end
$var wire 1 d! random[9]~4_combout $end
$var wire 1 e! random[9]~reg0_q $end
$upscope $end
$upscope $end
$enddefinitions $end
#0
$dumpvars
0!
b0 "
xB
xA
x@
x?
x>
x=
x<
x;
x:
x9
08
07
06
05
04
03
02
01
00
0/
0.
0-
0,
0+
0*
0)
0(
0'
0&
0%
0$
0#
0C
1D
xE
1F
1G
1H
0I
0J
0K
0L
0M
0N
0O
0P
0Q
0R
0S
0T
0U
0V
0W
0X
0Y
0Z
0[
0\
0]
0^
0_
0`
0a
0b
0c
0d
0e
0f
0g
0h
xi
xj
xk
xl
xm
xn
xo
xp
xq
xr
0s
0t
0u
0v
0w
0x
0y
0z
0{
0|
0}
0~
0!!
0"!
0#!
0$!
0%!
0&!
0'!
0(!
0)!
0*!
0+!
x,!
x-!
0.!
x/!
x0!
x1!
02!
x3!
x4!
05!
x6!
x7!
x8!
x9!
0:!
x;!
x<!
x=!
x>!
0?!
x@!
xA!
xB!
xC!
xD!
0E!
xF!
xG!
xH!
xI!
xJ!
xK!
0L!
xM!
xN!
xO!
xP!
xQ!
xR!
0S!
xT!
xU!
xV!
xW!
xX!
xY!
xZ!
0[!
x\!
x]!
x^!
x_!
x`!
xa!
xb!
xc!
xd!
0e!
$end
#173
0,!
#544
06!
#679
1F!
#818
1]!
0M!
#840
0U!
#870
1N!
#892
1;!
#893
1@!
#902
0`!
#911
07!
#934
1-!
#944
0A!
#975
0T!
#1010
1G!
#1157
03!
#1179
0\!
#1257
1/!
#1387
18!
#1456
1=!
#1525
1<!
#1555
0H!
#1559
1B!
#1629
1O!
#1660
0^!
#1693
14!
#1695
0V!
#1793
10!
#2075
09!
#2141
0P!
#2196
1_!
#2231
1W!
#2331
0>!
#2335
0I!
#2338
01!
#2401
1Q!
#2429
1C!
#2467
0Y!
#2727
0a!
#2847
0J!
#2965
1D!
#3023
0R!
#3028
1X!
#3367
1K!
#3470
1r
19
#3490
1j
1A
#3508
0q
0:
#3516
1o
1<
#3524
0k
0@
#3579
1l
1?
#3687
0Z!
#3761
0m
0>
#3771
1b!
#3783
0n
0=
#3824
0p
0;
#3960
1i
1B
#4283
0c!
#4666
1d!
#20000
1!
#20730
1+!
#20917
1,!
#23321
1E!
#23322
1.!
15!
#23731
1\!
16!
#23753
1L!
1e!
#23777
1U!
#23894
0N!
#23901
0@!
#23931
0F!
0\!
#24215
0-!
#24222
04!
#24306
17!
#24411
0/!
#24491
1a!
#24495
0=!
#24604
1P!
#24626
0W!
#24658
0O!
#24672
1V!
#24923
00!
#25014
1c!
#25031
1>!
#25170
0P!
#25208
1W!
#25357
0d!
#25460
0X!
#25484
1R!
#25491
11!
#26005
1X!
#26052
0R!
#26101
0b!
#26147
1Z!
#26613
0c!
#26664
0Z!
#26748
1b!
#26874
1k
1@
#26996
1d!
#27164
1n
1=
#27263
0r
09
#27284
1c!
#27300
0o
0<
#27362
0i
0B
#27627
0d!
#40000
0!
#40836
0+!
#41009
0,!
#60000
1!
#60730
1+!
#60917
1,!
#63321
1?!
#63322
0.!
12!
05!
#63751
06!
#63753
0e!
#63999
1T!
#64067
0U!
#64088
1M!
#64117
0;!
#64192
1N!
#64233
07!
#64256
1-!
#64259
0<!
#64279
14!
#64299
1=!
#64343
1A!
#64409
0G!
#64501
10!
#64579
1/!
#64589
0a!
#64762
0A!
#64791
1<!
#64798
0V!
#64828
1G!
#64864
1^!
#65043
0C!
#65046
01!
#65091
00!
#65100
0c!
#65310
0W!
#65376
0_!
#65483
1d!
#65555
0D!
#65597
0>!
#65659
11!
#65695
1C!
#65924
1a!
#66144
0X!
#66231
1D!
#66447
1c!
#66785
0b!
#66790
0d!
#66831
1Z!
#66846
0k
0@
#66849
0j
0A
#67149
1m
1>
#67223
1r
19
#67282
1i
1B
#67297
0c!
#67680
1d!
#80000
0!
#80836
0+!
#81009
0,!
#100000
1!
#100730
1+!
#100917
1,!
#103321
0?!
#103322
1.!
15!
#103731
16!
#103753
1[!
1e!
#103900
0T!
#103907
1@!
#104139
0M!
#104174
1U!
#104215
0-!
#104222
04!
#104306
17!
#104318
0<!
#104411
0/!
#104477
13!
#104495
0=!
#104499
0a!
#104512
0G!
#104543
07!
#104547
0^!
#104581
0B!
#104596
1W!
#104612
1X!
#104845
1P!
#104914
1V!
#104947
10!
#105013
14!
#105026
1c!
#105048
1H!
#105055
08!
#105083
1_!
#105271
0Z!
#105355
1b!
#105369
0d!
#105416
0X!
#105438
0D!
#105492
01!
#105500
1`!
#105725
1R!
#105757
19!
#105846
1J!
#105867
0c!
#106057
0b!
#106103
1Z!
#106250
1d!
#106329
0K!
#106593
1c!
#106874
1k
1@
#106936
0d!
#107082
0m
0>
#107263
0r
09
#107292
1q
1:
#107362
0i
0B
#120000
0!
#120836
0+!
#121009
0,!
#140000
1!
#140730
1+!
#140917
1,!
#143321
0E!
1S!
#143322
0.!
02!
1:!
#143753
0L!
0e!
#143832
0U!
#143945
1M!
#144114
0@!
#144133
0]!
#144216
0N!
#144256
1-!
#144285
1\!
#144351
1B!
#144419
1G!
#144479
03!
#144535
00!
#144545
17!
#144553
1]!
#144579
1/!
#144581
1a!
#144677
0_!
#144684
0W!
#144829
0B!
#144991
04!
#145081
18!
#145088
0c!
#145103
11!
#145115
10!
#145188
1D!
#145209
0a!
#145465
0`!
#145471
1d!
#145495
1X!
#145660
01!
#145686
0D!
#145736
1c!
#145769
09!
#146001
1a!
#146079
0d!
#146154
0Z!
#146238
1b!
#146812
1j
1A
#146931
0l
0?
#147104
0n
0=
#147200
1p
1;
#147223
1r
19
#147269
1o
1<
#147282
1i
1B
#160000
0!
#160836
0+!
#161009
0,!
#180000
1!
#180730
1+!
#180917
1,!
#183322
1.!
05!
0:!
#183753
0[!
#183897
1;!
#183999
1@!
#184215
0-!
#184233
07!
#184242
1T!
#184279
14!
#184411
0/!
#184501
0\!
#184530
1<!
#184665
1B!
#184711
0X!
#184745
08!
#184897
1W!
#184923
00!
#185336
1>!
#185344
1_!
#185352
0b!
#185398
1Z!
#185447
19!
#185491
11!
#185502
1D!
#185694
1X!
#185864
0c!
#185875
0a!
#186247
1d!
#186353
0Z!
#186402
1c!
#186437
1b!
#186745
0d!
#186846
0k
0@
#186901
1l
1?
#186949
0c!
#187261
0q
0:
#187332
1d!
#187362
0i
0B
#200000
0!
#200836
0+!
#201009
0,!
#220000
1!
#220730
1+!
#220917
1,!
#223321
1?!
1E!
#223322
0.!
12!
15!
1:!
#223753
1e!
#223777
1U!
#223900
0T!
#224075
0]!
#224081
0M!
#224104
1N!
#224114
0@!
#224222
04!
#224239
0G!
#224256
1-!
#224259
0<!
#224305
1O!
#224306
17!
#224310
0B!
#224343
1A!
#224371
0V!
#224437
1^!
#224444
1\!
#224491
1a!
#224501
10!
#224579
1/!
#224751
0H!
#224795
0P!
#224842
18!
#224883
0W!
#225014
1c!
#225046
01!
#225075
0>!
#225091
00!
#225167
0D!
#225280
0_!
#225357
0d!
#225530
09!
#225554
0J!
#225659
11!
#225677
0R!
#225717
0X!
#225812
0a!
#226074
1K!
#226323
0c!
#226358
0b!
#226404
1Z!
#226706
1d!
#226849
0j
0A
#226874
1k
1@
#226894
1c!
#226931
0l
0?
#227149
1m
1>
#227164
1n
1=
#227237
0d!
#227263
0r
09
#227282
1i
1B
#240000
0!
#240836
0+!
#241009
0,!
#260000
1!
#260730
1+!
#260917
1,!
#263321
0?!
0E!
0S!
#263322
1.!
05!
0:!
#263753
1L!
1[!
0e!
#263893
0;!
#263931
0\!
#263947
1F!
#263999
1T!
#264161
0U!
#264215
0-!
#264233
07!
#264265
0A!
#264279
14!
#264411
0/!
#264419
1G!
#264477
13!
#264485
0O!
#264551
1V!
#264581
1a!
#264612
1X!
#264745
08!
#264774
1_!
#264947
10!
#264955
1H!
#264981
0^!
#264989
04!
#265021
1P!
#265027
1W!
#265088
0c!
#265271
0Z!
#265305
0a!
#265355
1b!
#265447
19!
#265471
1d!
#265492
01!
#265493
0_!
#265753
1J!
#265847
0X!
#265901
1R!
#265931
1`!
#266236
0K!
#266488
0b!
#266534
1Z!
#266846
0k
0@
#266901
1l
1?
#267024
1c!
#267082
0m
0>
#267104
0n
0=
#267145
0p
0;
#267223
1r
19
#267292
1q
1:
#267300
0o
0<
#267362
0i
0B
#267367
0d!
#280000
0!
#280836
0+!
#281009
0,!
#300000
1!
#300730
1+!
#300917
1,!
#303321
1S!
#303322
0.!
02!
1:!
#303753
0L!
#303945
1M!
#303985
0F!
#304125
1@!
#304216
0N!
#304256
1-!
#304444
1\!
#304479
03!
#304535
00!
#304553
1]!
#304579
1/!
#304791
1B!
#305015
14!
#305103
11!
#305115
10!
#305628
1D!
#305660
01!
#306812
1j
1A
#306931
0l
0?
#307200
1p
1;
#307269
1o
1<
#307282
1i
1B
#320000
0!
#320836
0+!
#321009
0,!
#340000
1!
#340730
1+!
#340917
1,!
#343321
1E!
#343322
1.!
15!
#343751
06!
#343777
1U!
#343897
1;!
#343900
0T!
#343901
0@!
#343947
1F!
#344075
0]!
#344215
0-!
#344222
04!
#344306
17!
#344411
0/!
#344530
1<!
#344635
1_!
#344823
0H!
#344897
1O!
#344923
00!
#344963
0V!
#345029
1^!
#345182
1a!
#345336
1>!
#345409
0P!
#345475
0W!
#345491
11!
#345541
0_!
#345626
0J!
#345689
0c!
#346072
1d!
#346073
0a!
#346146
1K!
#346256
0`!
#346286
1X!
#346291
0R!
#346600
1c!
#346792
1a!
#346874
1k
1@
#346943
0d!
#346945
0Z!
#347029
1b!
#347164
1n
1=
#347362
0i
0B
#360000
0!
#360836
0+!
#361009
0,!
#380000
1!
#380730
1+!
#380917
1,!
#383321
1?!
0S!
#383322
0.!
12!
05!
#383731
16!
#383753
1L!
0[!
#383992
0F!
#384104
1N!
#384125
1@!
#384188
0U!
#384233
07!
#384256
1-!
#384259
0<!
#384279
14!
#384310
1T!
#384343
1A!
#384409
0G!
#384469
1]!
#384501
10!
#384579
1/!
#384711
0X!
#384779
1P!
#384818
0O!
#384850
1H!
#385025
1_!
#385046
01!
#385075
0>!
#385091
00!
#385330
0P!
#385352
0b!
#385398
1Z!
#385556
0a!
#385648
1J!
#385659
1R!
11!
#385864
0c!
#386083
1c!
#386131
0K!
#386212
0R!
#386846
0k
0@
#386849
0j
0A
#387145
0p
0;
#387149
1m
1>
#387261
0q
0:
#387282
1i
1B
#387300
0o
0<
#400000
0!
#400836
0+!
#401009
0,!
#420000
1!
#420730
1+!
#420917
1,!
#423321
0?!
#423322
1.!
15!
#423751
06!
#423753
0L!
1[!
#423893
0;!
#423900
0T!
#423947
1F!
#424139
0M!
#424174
1U!
#424215
0-!
#424222
04!
#424265
0A!
#424306
17!
#424411
0/!
#424477
13!
#424543
07!
#424547
0^!
#424579
0]!
#424596
1W!
#424609
1=!
#424612
1X!
#424675
0C!
#424777
0B!
#424845
1P!
#424846
1O!
#424947
10!
#425013
14!
#425023
0W!
#425079
18!
#425128
1^!
#425145
1>!
#425187
0D!
#425271
0Z!
#425355
1b!
#425358
0P!
#425416
0X!
#425492
01!
#425626
1D!
#425640
0_!
#425695
1I!
#425725
1R!
#425767
09!
#425834
1X!
#425867
0c!
#426057
0b!
#426188
1a!
#426207
0J!
#426240
0R!
#426250
1d!
#426577
1b!
#426727
1K!
#426874
1k
1@
#427082
0m
0>
#427113
1c!
#427269
1o
1<
#427292
1q
1:
#427362
0i
0B
#427456
0d!
#440000
0!
#440836
0+!
#441009
0,!
#460000
1!
#460730
1+!
#460917
1,!
#463321
1?!
#463322
0.!
02!
0:!
#463753
1L!
0[!
#464067
0U!
#464088
1M!
#464214
1;!
#464223
0@!
#464236
1<!
#464256
1-!
#464310
1T!
#464469
1]!
#464479
03!
#464535
00!
#464545
17!
#464579
1/!
#464611
0=!
#464677
1C!
#464711
0X!
#464720
0H!
#464743
0I!
#464753
1P!
#464874
0<!
#464930
1B!
#464948
1A!
#464991
04!
#465025
1_!
#465057
08!
#465103
11!
#465115
10!
#465189
0D!
#465352
0b!
#465398
1Z!
#465460
0B!
#465556
0a!
#465633
1R!
#465660
01!
#465690
0>!
#465759
19!
#465767
1D!
#465864
0c!
#466083
1c!
#466317
0D!
#466812
1j
1A
#466901
1l
1?
#467149
1m
1>
#467261
0q
0:
#467282
1i
1B
#467300
0o
0<
#480000
0!
#480836
0+!
#481009
0,!
#500000
1!
#500730
1+!
#500917
1,!
#503321
0?!
0E!
1S!
#503322
1.!
05!
1:!
#503751
0\!
#503753
1[!
#503894
0N!
#503999
1@!
#504133
0]!
#504215
0-!
#504233
07!
#504265
0A!
#504279
14!
#504295
1<!
#504299
1=!
#504331
1G!
#504365
0C!
#504397
0O!
#504411
0/!
#504431
1I!
#504444
1\!
#504463
1V!
#504497
0Q!
#504529
0^!
#504612
1X!
#504677
0_!
#504769
18!
#504801
1B!
#504867
1H!
#504901
1D!
#504923
00!
#504967
1J!
#504999
1W!
#505009
0R!
#505199
1C!
#505225
1a!
#505265
0I!
#505269
1_!
#505271
0Z!
#505355
1b!
#505450
0K!
#505457
09!
#505491
11!
#505772
1Q!
#505800
0a!
#505819
0X!
#505903
1`!
#506308
1R!
#506311
0c!
#506439
1a!
#506460
0b!
#506506
1Z!
#506694
1d!
#506846
0k
0@
#506931
0l
0?
#507082
0m
0>
#507104
0n
0=
#507200
1p
1;
#507292
1q
1:
#507362
0i
0B
#520000
0!
#520836
0+!
#521009
0,!
#540000
1!
#540730
1+!
#540917
1,!
#543321
1E!
#543322
0.!
12!
15!
0:!
#543753
0L!
1e!
#543777
1U!
#543867
0;!
#543900
0T!
#544081
1]!
#544222
04!
#544239
0G!
#544256
1-!
#544305
1O!
#544306
17!
#544310
0B!
#544371
0V!
#544372
0=!
#544437
1^!
#544499
0a!
#544501
0\!
10!
#544568
0<!
#544579
1/!
0]!
#544817
0P!
#544818
08!
#544883
0W!
#544908
1>!
#545026
1c!
#545046
01!
#545091
00!
#545167
0D!
#545369
0d!
#545384
0>!
#545520
19!
#545659
11!
#545664
0`!
#545694
1X!
#545699
0R!
#546200
1a!
#546353
0Z!
#546437
1b!
#546849
0j
0A
#546874
1k
1@
#546901
1l
1?
#547164
1n
1=
#547263
0r
09
#547269
1o
1<
#547282
1i
1B
#560000
0!
#560836
0+!
#561009
0,!
#580000
1!
#580730
1+!
#580917
1,!
#583321
0E!
0S!
#583322
1.!
05!
1:!
#583753
0[!
0e!
#583832
0U!
#583976
0M!
#583993
0@!
#584101
0F!
#584139
1]!
#584215
0-!
#584233
07!
#584279
14!
#584299
1=!
#584365
0C!
#584411
0/!
#584419
1G!
#584431
1I!
#584477
13!
#584589
0a!
#584652
0^!
#584682
1P!
#584698
1W!
#584711
0X!
#584751
1V!
#584769
18!
#584835
1>!
#584901
1D!
#584927
0O!
#584943
0J!
#584947
10!
#584989
04!
#585100
0c!
#585263
0W!
#585352
0b!
#585398
1Z!
#585439
0P!
#585457
09!
#585463
1K!
#585483
1d!
#585492
01!
#585495
1X!
#585562
1R!
#585888
1c!
#586097
0X!
#586154
0Z!
#586231
0d!
#586238
1b!
#586321
0R!
#586738
0b!
#586784
1Z!
#586846
0k
0@
#586931
0l
0?
#587104
0n
0=
#587145
0p
0;
#587223
1r
19
#587261
0q
0:
#587362
0i
0B
#600000
0!
#600836
0+!
#601009
0,!
#620000
1!
#620730
1+!
#620917
1,!
#623321
1?!
1E!
#623322
0.!
02!
0:!
#623753
1L!
1[!
#623990
1N!
#624001
1F!
1\!
#624088
1M!
#624214
1;!
#624215
1@!
#624236
1<!
#624256
1-!
#624308
1B!
#624479
03!
#624501
0\!
#624535
00!
#624579
1/!
#624612
1X!
#624692
0V!
#624820
0G!
#624837
0_!
#624874
0<!
#624886
1O!
#624889
0B!
#624948
1A!
#625015
14!
#625042
0>!
#625084
0I!
#625103
11!
#625115
10!
#625140
1C!
#625228
1W!
#625271
0Z!
#625332
0H!
#625344
1_!
#625355
1b!
#625385
1a!
#625422
1P!
#625484
1B!
#625620
1J!
#625658
0C!
#625660
01!
#625690
1>!
#625724
1I!
#625875
0a!
#626048
0X!
#626103
0K!
#626114
0Q!
#626132
1`!
#626260
0I!
#626326
1Q!
#626329
0D!
#626386
0c!
#626668
1a!
#626689
0b!
#626735
1Z!
#626769
1d!
#626772
0J!
#626812
1j
1A
#626862
1R!
#626901
1l
1?
#627149
1m
1>
#627164
1n
1=
#627282
1i
1B
#627292
1q
1:
1K!
#627300
0o
0<
#640000
0!
#640836
0+!
#641009
0,!
#660000
1!
#660730
1+!
#660917
1,!
#663321
0E!
1S!
#663322
1.!
15!
#663731
1\!
16!
#663753
1e!
#663894
0N!
#663901
0@!
#663929
0M!
#663931
0F!
0\!
#664133
0]!
#664215
0-!
#664222
04!
#664306
17!
#664411
0/!
#664495
0=!
#664499
0a!
#664561
1C!
#664677
1G!
0_!
#664704
1V!
#664757
0O!
#664923
00!
#665007
0>!
#665026
1c!
#665097
1D!
#665216
0W!
#665225
1a!
#665269
0P!
#665369
0d!
#665491
11!
#665732
0c!
#665997
0`!
#666027
1X!
#666115
1d!
#666151
0R!
#666509
0a!
#666686
0Z!
#666770
1b!
#666874
1k
1@
#667104
0n
0=
#667200
1p
1;
#667263
0r
09
#667362
0i
0B
#680000
0!
#680836
0+!
#681009
0,!
#700000
1!
#700730
1+!
#700917
1,!
#703321
0?!
1E!
0S!
#703322
0.!
12!
05!
#703751
06!
#703753
0[!
#703999
1T!
#704081
1]!
#704117
0;!
#704174
1U!
#704192
1N!
#704233
07!
#704239
0G!
#704256
1-!
#704265
0A!
#704279
14!
#704295
1<!
#704299
1=!
#704331
1G!
#704365
0C!
#704501
10!
#704579
1/!
#704637
1_!
#704711
0X!
#704818
0<!
#704867
1P!
#704877
0D!
#705046
01!
#705091
00!
#705128
1^!
#705184
1a!
#705199
1C!
#705352
0b!
#705398
1Z!
#705602
0C!
#705634
1>!
#705640
0_!
#705659
11!
#705747
1R!
#706172
0a!
#706699
1c!
#706846
0k
0@
#706849
0j
0A
#707042
0d!
#707082
0m
0>
#707145
0p
0;
#707164
1n
1=
#707261
0q
0:
#707282
1i
1B
#720000
0!
#720836
0+!
#721009
0,!
#740000
1!
#740730
1+!
#740917
1,!
#743321
1?!
0E!
1S!
#743322
1.!
15!
#743731
16!
#743753
1[!
0e!
#743832
0U!
#743900
0T!
#743907
1@!
#744133
0]!
#744215
0-!
#744222
04!
#744236
1<!
#744306
17!
#744411
0/!
#744477
13!
#744495
0=!
#744543
07!
#744547
0^!
#744561
1C!
#744581
1a!
#744612
1X!
#744947
10!
#745013
14!
#745055
08!
#745088
0c!
#745097
1D!
#745271
0Z!
#745355
1b!
#745471
1d!
#745492
01!
#745757
19!
#745891
1c!
#746234
0d!
#746874
1k
1@
#747104
0n
0=
#747149
1m
1>
#747200
1p
1;
#747223
1r
19
#747292
1q
1:
#747362
0i
0B
#760000
0!
#760836
0+!
#761009
0,!
#780000
1!
#780730
1+!
#780917
1,!
#783321
1E!
#783322
0.!
02!
1:!
#783753
0[!
#783777
1U!
#784081
1]!
#784114
0@!
#784216
0N!
#784239
0G!
#784256
1-!
#784285
1\!
#784310
0B!
#784479
03!
#784535
00!
#784545
17!
#784579
1/!
#784637
1_!
#784640
1W!
#784711
0X!
#784775
1H!
#784821
1B!
#784890
1G!
#784928
0P!
#784991
04!
#785081
18!
#785103
11!
#785115
10!
#785121
0_!
#785167
0D!
#785168
0a!
#785352
0b!
#785398
1Z!
#785402
0H!
#785437
1X!
#785573
1J!
#785658
1D!
#785660
01!
#785669
1a!
#785769
09!
#785810
0R!
#786056
0K!
#786096
0Z!
#786176
0c!
#786180
1b!
#786205
0J!
#786559
1d!
#786716
1c!
#786725
1K!
#786812
1j
1A
#786931
0l
0?
#787059
0d!
#787164
1n
1=
#787261
0q
0:
#787282
1i
1B
#800000
0!
#800836
0+!
#801009
0,!
#820000
1!
#820730
1+!
#820917
1,!
#823321
0S!
#823322
1.!
05!
0:!
#823897
1;!
#823992
1M!
#823999
1@!
#824188
0U!
#824215
0-!
#824233
07!
#824242
1T!
#824279
14!
#824411
0/!
#824501
0\!
#824557
0<!
#824604
0G!
#824631
1A!
#824657
1P!
#824745
08!
#824923
00!
#825140
1H!
#825344
1_!
#825373
0>!
#825447
19!
#825491
11!
#825537
1R!
#825875
0a!
#825938
1J!
#826386
0c!
#826421
0K!
#826769
1d!
#826846
0k
0@
#826901
1l
1?
#827145
0p
0;
#827362
0i
0B
#840000
0!
#840836
0+!
#841009
0,!
#860000
1!
#860730
1+!
#860917
1,!
#863321
0?!
1S!
#863322
0.!
12!
15!
1:!
#863753
0L!
1e!
#863900
0T!
#864101
1U!
#864104
1N!
#864114
0@!
#864222
04!
#864256
1-!
#864265
0A!
#864295
1<!
#864306
17!
#864444
1\!
#864491
1a!
#864501
10!
#864579
1/!
0]!
#864710
0V!
#864771
0H!
#864776
1^!
#864781
0P!
#864842
18!
#864846
1O!
#864890
1G!
#864956
0O!
#865014
1c!
#865046
01!
#865091
00!
#865101
1>!
#865123
0_!
#865222
0W!
#865357
0d!
#865426
1H!
#865530
09!
#865574
0J!
#865655
0a!
#865659
11!
#865663
0R!
#866056
0X!
#866094
1K!
#866166
0c!
#866224
1J!
#866549
1d!
#866697
0b!
#866707
0K!
#866743
1Z!
#866849
0j
0A
#866874
1k
1@
#866931
0l
0?
#867082
0m
0>
#867200
1p
1;
#867233
1c!
#867263
0r
09
#867269
1o
1<
#867282
1i
1B
#867576
0d!
#880000
0!
#880836
0+!
#881009
0,!
#900000
1!
#900730
1+!
#900917
1,!
#903321
1?!
0S!
#903322
1.!
05!
0:!
#903753
1[!
0e!
#903893
0;!
#903931
0\!
#903947
1F!
#903999
1T!
#904188
0U!
#904215
0-!
#904233
07!
#904279
14!
#904411
0/!
#904477
13!
#904581
1a!
#904612
1X!
#904745
08!
#904774
1_!
#904823
0H!
#904897
1O!
#904947
10!
#904989
04!
#905088
0c!
#905271
0Z!
#905305
0a!
#905355
1b!
#905433
1P!
#905447
19!
#905471
1d!
#905492
01!
#905626
0J!
#906146
1K!
#906313
1R!
#906846
0k
0@
#906901
1l
1?
#907145
0p
0;
#907149
1m
1>
#907223
1r
19
#907292
1q
1:
#907362
0i
0B
#920000
0!
#920836
0+!
#921009
0,!
